id,first_name,last_name,ip_address,mac_address,urlwebsite
1,Caryl,Stode,180.40.247.182,33-26-B0-50-02-8B,http://nhs.uk
2,Jeremie,Whitmore,178.127.223.246,E0-B9-A1-66-FA-DA,http://prlog.org
3,Agnesse,Alliband,76.88.25.135,80-06-1C-C7-A9-1B,http://home.pl
4,Dusty,Brownill,229.18.129.161,00-E0-3E-A5-25-AD,http://blog.com
5,Waly,Coard,67.200.42.227,46-8E-72-70-BE-A1,https://shutterfly.com
6,Rodi,Yeates,27.54.169.104,4F-A7-54-C3-92-6F,http://google.ru
7,Temple,Holtum,109.26.22.240,F1-FC-12-C2-8E-1B,https://odnoklassniki.ru
8,Gan,Sauven,58.19.206.145,22-DD-7B-96-E6-92,http://istockphoto.com
9,Dinny,Muzzollo,213.152.37.229,B4-E9-A9-7E-A8-F8,http://google.cn
10,Hatti,Batters,86.179.189.88,F4-BA-F7-CD-11-9C,http://examiner.com
11,Devon,Horsley,101.241.93.81,D9-A7-6A-B9-60-35,http://yahoo.com
12,Sheena,Maides,64.92.216.118,B1-F0-DA-46-5E-54,https://weather.com
13,Carce,Oats,196.245.207.87,9C-40-FE-00-77-C4,https://gnu.org
14,Gwendolen,Tremberth,142.213.86.114,E9-F2-F2-4A-DF-29,https://google.it
15,Keith,Ratchford,241.68.9.238,A0-BE-4B-BE-37-55,https://nytimes.com
16,Sybil,Roderham,67.203.33.192,64-D6-57-DF-AC-00,http://engadget.com
17,Marin,Fawdry,106.36.250.13,C5-07-E3-02-7D-55,https://cnet.com
18,Nolana,Cansfield,55.93.243.180,9A-BD-75-08-7F-41,https://cisco.com
19,Bellina,Gisbey,80.138.176.63,5C-04-BF-7B-D6-77,https://taobao.com
20,Colas,Beddow,7.99.32.14,E8-3B-43-55-5C-FD,https://census.gov
21,Fitzgerald,Denzilow,166.198.138.198,7C-22-24-84-63-3A,https://tamu.edu
22,Gabbie,Britney,192.35.155.228,A1-2C-B2-4F-0F-03,https://usgs.gov
23,Nicol,Anelay,127.174.150.66,0A-2A-1A-70-58-5A,https://hibu.com
24,Zeb,Merkel,221.222.233.216,1A-01-86-87-D6-F8,https://epa.gov
25,Josias,Blint,235.73.80.94,8D-4D-EA-2B-19-B7,https://merriam-webster.com
26,Emily,Butterick,223.91.194.101,92-8B-03-01-0F-26,http://unc.edu
27,Lynnett,Arthars,28.39.20.143,DB-7C-D0-BB-5A-E2,http://github.io
28,Arnie,Coffelt,86.105.73.237,CD-7A-C2-A0-71-1F,http://mapquest.com
29,Isidora,Balint,163.248.10.123,B0-71-E4-AD-85-F3,https://jigsy.com
30,Peterus,Sheilds,68.30.250.39,B6-EC-7C-26-A3-28,https://amazonaws.com
31,Dalt,Sharman,196.83.237.203,94-2D-A9-EA-FA-04,https://washingtonpost.com
32,Eli,Suatt,146.129.136.42,0C-B6-A9-06-53-A4,http://cpanel.net
33,Zorah,Bello,142.171.116.1,55-3C-19-2E-F5-7B,http://reference.com
34,Fritz,Minillo,81.49.15.125,FC-E8-39-DD-BC-F6,http://wired.com
35,Koralle,Mandry,47.236.100.67,30-90-EE-E3-A7-DE,https://umich.edu
36,Marion,Turbayne,71.109.225.170,90-99-38-17-2A-96,https://toplist.cz
37,Lotta,Chesney,130.175.170.4,C6-5D-C1-21-13-3C,https://merriam-webster.com
38,Caitrin,Antyukhin,193.120.169.132,B0-F9-50-13-A7-80,https://skype.com
39,Vivi,McKune,109.203.127.45,57-20-AA-29-0F-AA,https://economist.com
40,Killy,Dilloway,78.136.36.211,20-78-F7-99-DE-10,https://huffingtonpost.com
41,Dulcine,Reavell,73.10.80.107,C1-CF-AB-47-79-F0,https://hc360.com
42,Marchelle,Comford,245.169.46.31,11-87-2A-72-73-2F,https://paypal.com
43,Durant,Gayler,232.108.60.111,BB-56-2B-4A-A7-9A,https://is.gd
44,Mickey,Bassingden,169.40.196.126,AB-75-1A-31-5B-E6,http://cisco.com
45,Aguste,Boothman,228.188.226.189,D7-55-36-7F-43-EB,http://wired.com
46,Derward,Surmon,214.149.154.84,D8-FC-CC-04-D9-D9,http://foxnews.com
47,Odele,Allison,120.181.47.30,D7-82-E5-F6-70-B1,http://ustream.tv
48,Eran,McTiernan,134.128.216.184,E3-E9-EF-16-D6-EB,http://nationalgeographic.com
49,Karlene,Swaysland,55.53.70.206,17-D6-B0-09-BE-7A,http://youtu.be
50,Noak,Cantu,238.52.240.224,52-B3-BF-53-E2-7E,https://joomla.org
51,Horten,Offiler,204.220.37.232,82-F6-57-E4-B0-F7,https://uol.com.br
52,Torry,Seston,62.117.27.130,B4-80-3F-AD-9D-E9,http://ovh.net
53,Sanford,Greeson,83.186.227.203,9E-18-1D-14-70-E5,http://loc.gov
54,Catriona,D'orsay,102.237.20.72,81-43-4D-A7-71-7D,http://cdbaby.com
55,Silvie,Sawbridge,79.148.225.254,B3-59-DA-78-56-43,https://npr.org
56,Kylie,Ewbanks,217.69.220.213,35-41-74-D6-B4-C5,https://bluehost.com
57,Todd,McKyrrelly,175.48.147.83,6F-F2-9C-82-68-AF,https://bloglovin.com
58,Michail,Bohea,120.117.54.235,DB-80-58-B8-E5-B0,http://ameblo.jp
59,Laetitia,Halston,1.135.161.225,63-22-B5-6D-15-F8,http://shop-pro.jp
60,Stefanie,Crofts,237.160.185.31,E0-A9-1D-C1-DA-1E,http://amazonaws.com
61,Dannie,Aldwich,151.17.18.68,60-4A-57-FD-35-16,https://example.com
62,Billie,Hazelden,52.244.180.55,5E-F8-9C-E8-8B-A1,https://altervista.org
63,Alberta,Paradin,189.164.38.222,F1-D2-44-FE-BB-1A,http://mit.edu
64,Enrique,Emptage,47.77.227.41,C5-98-EA-42-7D-E0,https://surveymonkey.com
65,Kevan,Phlippi,58.125.142.38,2F-C2-72-33-98-3E,http://japanpost.jp
66,Salem,Edison,9.93.157.57,F6-72-6B-F3-27-AE,http://adobe.com
67,Starla,Brotherton,232.8.110.147,8B-E8-AC-5F-1C-0B,http://hibu.com
68,Priscilla,Harry,200.96.44.231,5F-C5-CD-6E-B5-B8,https://state.tx.us
69,Ravid,Shillan,246.225.58.155,32-0B-97-8C-CE-63,https://ustream.tv
70,Cami,Hucknall,130.49.32.239,FC-18-4F-36-E4-03,https://ucla.edu
71,Kennith,Tearny,108.60.67.227,A9-65-5C-4C-55-B0,http://theglobeandmail.com
72,Sherman,Stopps,206.196.156.12,1C-C7-68-1C-E8-53,http://google.cn
73,Janetta,Karpov,7.54.152.207,88-2A-8D-6E-57-15,http://tmall.com
74,Sherie,Surmon,146.137.202.148,A1-3E-41-20-85-C8,https://archive.org
75,Atalanta,Mattson,168.103.149.82,03-5A-9E-9D-3A-20,https://devhub.com
76,Isabelita,Jonas,83.169.251.8,EF-97-AA-A5-1E-9A,http://woothemes.com
77,Efrem,Joslow,11.162.171.34,10-09-EA-6F-69-0C,http://technorati.com
78,Sampson,Garroway,53.89.65.166,C7-16-3B-35-D3-87,http://utexas.edu
79,Shaw,Castledine,169.91.114.109,35-BB-F3-B6-48-2C,http://plala.or.jp
80,Brigit,Faulo,113.37.136.210,F8-CF-56-CD-DE-B7,https://weibo.com
81,Cara,Le Barr,231.67.71.24,8D-E0-57-D4-BA-A6,https://alibaba.com
82,Berta,Cheer,206.219.171.17,EF-6F-D5-A3-EE-F5,http://wikispaces.com
83,Romy,Peckham,26.139.117.222,B2-10-CA-42-56-6A,http://theglobeandmail.com
84,Brendan,Hugk,145.111.41.149,EC-30-9D-11-41-A1,https://reference.com
85,Delbert,Starr,192.41.24.100,E2-77-7E-B7-D3-F3,http://omniture.com
86,Corette,Swindall,14.155.226.196,96-8C-F8-4F-4C-0D,https://toplist.cz
87,Joletta,Demkowicz,38.111.138.18,76-81-ED-05-9A-C5,http://blogtalkradio.com
88,Betsey,Bower,132.247.27.54,F3-DE-73-77-19-5E,https://parallels.com
89,Sue,Swiffen,156.208.204.107,FE-1B-2D-FF-75-B0,http://tamu.edu
90,Faun,McVittie,3.5.138.208,11-5C-9A-0A-F8-6A,https://ezinearticles.com
91,Claudell,Gurys,209.101.114.159,1F-FA-87-C9-98-53,https://loc.gov
92,Dianne,Pancoust,94.136.97.88,79-80-3C-59-F8-57,http://shareasale.com
93,Brian,Van der Velden,214.9.182.46,5C-AC-1C-52-4F-24,https://census.gov
94,Allayne,Skamell,25.207.192.205,A3-0E-28-D1-E4-66,http://earthlink.net
95,Lorrin,Grigoliis,73.210.219.121,3B-9C-B0-00-9D-B7,https://answers.com
96,Giacinta,Chellingworth,54.187.25.240,E5-9F-C4-9D-1C-D9,http://gmpg.org
97,Bronnie,Latore,221.69.74.211,A4-84-BE-A8-9D-00,http://wunderground.com
98,Blaine,Rutherforth,246.101.10.244,D3-7B-0E-F5-89-39,https://jigsy.com
99,See,Bussell,18.36.85.76,DF-C6-60-B3-0A-42,https://nbcnews.com
100,Juliann,Eady,28.159.107.95,B3-50-D9-51-83-37,http://ocn.ne.jp
